{
  "languages": [
    {
      "lang": "de_DE", "fields": [
      {
        "text": "<p>Hier befindet sich html text</p> <p>der vom <h1>Nutzer</h1> als contenttype text angelegt wurde</p>"
      }
    ]
    }, {
      "lang": "en_EN", "fields": [
        {
          "text": "<p>You'll find HTML Text here</p> <p>which the<h1>user</h1>produced as ContentType Text</p>"
        }
      ]
    }
  ]
}